…
for (i in 1:1000){
  res_boot = boot_sample(res_data)
  y_star = res_boot$resid + pred
  life_boot_data = bind_cols(life_data, tibble(y_star))
  boot_res_reg = lm(y_star ~ murder + hs_grad + frost, data=life_boot_data)
  list[i] = rmse(boot_res_reg, life_boot_data)
  i = i + 1
}

repeat_1000 = tibble(rMSE = list[1:1000])
repeat_1000
```

    ## # A tibble: 1,000 x 1
    ##    rMSE             
    ##    <chr>            
    ##  1 0.704451873543589
    ##  2 0.581079840881366
    ##  3 0.638528072155515
    ##  4 0.637400021055365
    ##  5 0.728060056647469
    ##  6 0.71606216374113 
    ##  7 0.755885751965547
    ##  8 0.769793897157417
    ##  9 0.777938189350777
    ## 10 0.733343726196286
    ## # ... with 990 more rows
…
